{
  "dependencies": {
    "mssql1": {
      "secretStore": "AzureAppSettings",
      "resourceId": "/subscriptions/[parameters('subscriptionId')]/resourceGroups/[parameters('resourceGroupName')]/providers/Microsoft.Sql/servers/iva22gr02/databases/IvA-22-gr02",
      "type": "mssql.azure",
      "connectionId": "ConnectionStrings:ActivityAppCon"
    }
  }
}